{
  "android_play_store_link": "",
  "ios_app_store_link": "",
  "sticker_packs": [
    {
      "identifier": "1",
      "name": "Rantanen",
      "publisher": "Rantanen",
      "tray_image_file": "tray_rantanen.png",
      "publisher_email": "",
      "publisher_website": "",
      "privacy_policy_website": "",
      "license_agreement_website": "",
      "stickers": [
        {
          "image_file": "flip.webp",
          "emojis": [
            "☕",
            "🙂"
          ]
        },
        {
          "image_file": "hardboildo.webp",
          "emojis": [
            "😄",
            "😀"
          ]
        },
        {
          "image_file": "juhannus.webp",
          "emojis": [
            "😆",
            "😂"
          ]
        },
        {
          "image_file": "lanttupaa.webp",
          "emojis": [
            "🌈",
            "😜"
          ]
        },
        {
          "image_file": "leia.webp",
          "emojis": [
            "😩",
            "😰"
          ]
        },
        {
          "image_file": "loiskis.webp",
          "emojis": [
            "😭",
            "💧"
          ]
        },
        {
          "image_file": "maha.webp",
          "emojis": [
            "😍",
            "♥"
          ]
        },
        {
          "image_file": "nakulento.webp",
          "emojis": [
            "💔",
            "👎"
          ]
        },
        {
          "image_file": "pihevi.webp",
          "emojis": [
            "😍",
            "💑"
          ]
        },
        {
          "image_file": "pillusyömäri.webp",
          "emojis": [
            "😘",
            "🍪"
          ]
        },
        {
          "image_file": "poniboy.webp",
          "emojis": [
            "🤔",
            "😐"
          ]
        },
        {
          "image_file": "randy.webp",
          "emojis": [
            "😱",
            "😵"
          ]
        },
        {
          "image_file": "tonttu.webp",
          "emojis": [
            "😡",
            "😠"
          ]
        },
        {
          "image_file": "trallallaa.webp",
          "emojis": [
            "❓",
            "🤔"
          ]
        }
      ]
    }
  ]
}
